{
  "api": "0",
  "auth": "gitlab:zaaksysteem",
  "authors": [
    "Patrick Spek <p.spek@tyil.work>"
  ],
  "depends": [
    "Config",
    "Config::Parser::toml",
    "DBIish",
    "File::Which",
    "File::XML::DMARC::Google",
    "File::Zip:auth<gitlab:tyil>",
    "XML::XPath"
  ],
  "description": "Perl 6 application to handle the import of DMARC reports",
  "license": "EUPL-1.2",
  "meta-version": 0,
  "name": "Local::Zaaksysteem::DMARC",
  "perl": "6.c",
  "provides": {
    "Local::Zaaksysteem::DMARC::CreateTables": "lib/Local/Zaaksysteem/DMARC/CreateTables.pm6",
    "Local::Zaaksysteem::DMARC::Import": "lib/Local/Zaaksysteem/DMARC/Import.pm6",
    "Local::Zaaksysteem::DMARC::List": "lib/Local/Zaaksysteem/DMARC/List.pm6",
    "Local::Zaaksysteem::DMARC::Repository::DmarcRecord": "lib/Local/Zaaksysteem/DMARC/Repository/DmarcRecord.pm6",
    "create-tables": "bin/create-tables",
    "import": "bin/import",
    "list-records": "bin/list-records"
  },
  "resources": [
    
  ],
  "source-url": "https://gitlab.com/zaaksysteem/dmarc-importer",
  "tags": [
    
  ],
  "version": "0.0.0"
}